{
  "templates": [
    "http://compose.bitstrips.com/v2/cpanel/3022560-104556134_10-s4-v1.png",
    "http://compose.bitstrips.com/v2/cpanel/3022456-104556134_10-s4-v1.png",
    "http://compose.bitstrips.com/v2/cpanel/3022536-104556134_10-s4-v1.png",
    "http://compose.bitstrips.com/v2/cpanel/3022586-104556134_10-s4-v1.png",
    "http://compose.bitstrips.com/v2/cpanel/3022631-104556134_10-s4-v1.png",
    "http://compose.bitstrips.com/v2/cpanel/3022831-104556134_10-s4-v1.png",
    "http://compose.bitstrips.com/v2/cpanel/4582229-104556134_10-s4-v1.png",
    "http://compose.bitstrips.com/v2/cpanel/4582242-104556134_10-s4-v1.png",
    "http://compose.bitstrips.com/v2/cpanel/4582264-104556134_10-s4-v1.png",
    "http://compose.bitstrips.com/v2/cpanel/4582293-104556134_10-s4-v1.png",
    "http://compose.bitstrips.com/v2/cpanel/3022543-104556134_10-s4-v1.png",
    "http://compose.bitstrips.com/v2/cpanel/3022554-104556134_10-s4-v1.png",
    "http://compose.bitstrips.com/v2/cpanel/3022616-104556134_10-s4-v1.png",
    "http://compose.bitstrips.com/v2/cpanel/3041095-104556134_10-s4-v1.png",
    "http://compose.bitstrips.com/v2/cpanel/3041120-104556134_10-s4-v1.png",
    "http://compose.bitstrips.com/v2/cpanel/4582252-104556134_10-s4-v1.png",
    "http://compose.bitstrips.com/v2/cpanel/4582256-104556134_10-s4-v1.png",
    "http://compose.bitstrips.com/v2/cpanel/4582335-104556134_10-s4-v1.png",
    "http://compose.bitstrips.com/v2/cpanel/3107933-104556134_10-s4-v1.png",
    "http://compose.bitstrips.com/v2/cpanel/4582270-104556134_10-s4-v1.png",
    "http://compose.bitstrips.com/v2/cpanel/4582276-104556134_10-s4-v1.png",
    "http://compose.bitstrips.com/v2/cpanel/4582351-104556134_10-s4-v1.png",
    "http://compose.bitstrips.com/v2/cpanel/4582357-104556134_10-s4-v1.png",
    "http://compose.bitstrips.com/v2/cpanel/4582305-104556134_10-s4-v1.png",
    "http://compose.bitstrips.com/v2/cpanel/4582314-104556134_10-s4-v1.png",
    "http://compose.bitstrips.com/v2/cpanel/4582323-104556134_10-s4-v1.png",
    "http://compose.bitstrips.com/v2/cpanel/3537250-104556134_10-s4-v1.png",
    "http://compose.bitstrips.com/v2/cpanel/3540515-104556134_10-s4-v1.png",
    "http://compose.bitstrips.com/v2/cpanel/3537142-104556134_10-s4-v1.png",
    "http://compose.bitstrips.com/v2/cpanel/3537112-104556134_10-s4-v1.png",
    "http://compose.bitstrips.com/v2/cpanel/3537094-104556134_10-s4-v1.png",
    "http://compose.bitstrips.com/v2/cpanel/3537077-104556134_10-s4-v1.png",
    "http://compose.bitstrips.com/v2/cpanel/3537064-104556134_10-s4-v1.png",
    "http://compose.bitstrips.com/v2/cpanel/3537056-104556134_10-s4-v1.png",
    "http://compose.bitstrips.com/v2/cpanel/3540402-104556134_10-s4-v1.png",
    "http://compose.bitstrips.com/v2/cpanel/3537003-104556134_10-s4-v1.png",
    "http://compose.bitstrips.com/v2/cpanel/3540352-104556134_10-s4-v1.png",
    "http://compose.bitstrips.com/v2/cpanel/3536904-104556134_10-s4-v1.png",
    "http://compose.bitstrips.com/v2/cpanel/3536855-104556134_10-s4-v1.png",
    "http://compose.bitstrips.com/v2/cpanel/3536823-104556134_10-s4-v1.png",
    "http://compose.bitstrips.com/v2/cpanel/3583397-104556134_10-s4-v1.png",
    "http://compose.bitstrips.com/v2/cpanel/3536800-104556134_10-s4-v1.png",
    "http://compose.bitstrips.com/v2/cpanel/3536778-104556134_10-s4-v1.png",
    "http://compose.bitstrips.com/v2/cpanel/8418531-104556134_10-s4-v1.png"
  ],
  "dogs": [
    {
      "type": "Pomeranian",
      "image": "http://i.ytimg.com/vi/c3P-81H2ZoU/maxresdefault.jpg"
    },
    {
      "type": "Chihuahua",
      "image": "http://ffaasstt.swide.com/wp-content/uploads/social-media-most-famous-dogs-tuna-chiweenie.jpg"
    },
    {
      "type": "Shih Tzu",
      "image": "https://upload.wikimedia.org/wikipedia/commons/5/5f/Pancho0008.JPG"
    },
    {
      "type": "Maltese",
      "image": "http://www.petmd.com/sites/default/files/breedopedia/maltese3.jpg"
    }
  ]
}
